{
    "drafts": [
        {
            "playerId": 2553435,
            "team": "king"
        },
        {
            "playerId": 2540175,
            "team": "baddpass"
        },
        {
            "playerId": 79607,
            "team": "david"
        },
        {
            "playerId": 2495454,
            "team": "check"
        },
        {
            "playerId": 2543496,
            "team": "microbenchmarks"
        },
        {
            "playerId": 2508061,
            "team": "zeno"
        },
        {
            "playerId": 2543583,
            "team": "teamng"
        },
        {
            "playerId": 2555418,
            "team": "kracken"
        },
        {
            "playerId": 2495450,
            "team": "unicorns"
        },
        {
            "playerId": 2543468,
            "team": "lauren"
        },
        {
            "playerId": 2552582,
            "team": "archangels"
        },
        {
            "playerId": 1032,
            "team": "dara"
        },
        {
            "playerId": 2552469,
            "team": "dara"
        },
        {
            "playerId": 2556370,
            "team": "archangels"
        },
        {
            "playerId": 2495207,
            "team": "lauren"
        },
        {
            "playerId": 2557973,
            "team": "unicorns"
        },
        {
            "playerId": 2506363,
            "team": "kracken"
        },
        {
            "playerId": 2552475,
            "team": "teamng"
        },
        {
            "playerId": 2543498,
            "team": "zeno"
        },
        {
            "playerId": 497278,
            "team": "microbenchmarks"
        },
        {
            "playerId": 2555224,
            "team": "check"
        },
        {
            "playerId": 2504211,
            "team": "david"
        },
        {
            "playerId": 2530747,
            "team": "baddpass"
        },
        {
            "playerId": 497240,
            "team": "king"
        },
        {
            "playerId": 2504775,
            "team": "king"
        },
        {
            "playerId": 2552487,
            "team": "baddpass"
        },
        {
            "playerId": 2533034,
            "team": "david"
        },
        {
            "playerId": 2532975,
            "team": "check"
        },
        {
            "playerId": 2555260,
            "team": "microbenchmarks"
        },
        {
            "playerId": 2557991,
            "team": "zeno"
        },
        {
            "playerId": 2557917,
            "team": "teamng"
        },
        {
            "playerId": 2550189,
            "team": "kracken"
        },
        {
            "playerId": 2495455,
            "team": "unicorns"
        },
        {
            "playerId": 2557997,
            "team": "lauren"
        },
        {
            "playerId": 2531332,
            "team": "archangels"
        },
        {
            "playerId": 2532865,
            "team": "dara"
        },
        {
            "playerId": 2552429,
            "team": "dara"
        },
        {
            "playerId": 2540258,
            "team": "archangels"
        },
        {
            "playerId": 2543743,
            "team": "lauren"
        },
        {
            "playerId": 2495663,
            "team": "unicorns"
        },
        {
            "playerId": 2536340,
            "team": "kracken"
        },
        {
            "playerId": 2540154,
            "team": "teamng"
        },
        {
            "playerId": 2540165,
            "team": "zeno"
        },
        {
            "playerId": 2495700,
            "team": "microbenchmarks"
        },
        {
            "playerId": 497236,
            "team": "check"
        },
        {
            "playerId": 2495466,
            "team": "david"
        },
        {
            "playerId": 2540269,
            "team": "baddpass"
        },
        {
            "playerId": 2507164,
            "team": "king"
        },
        {
            "playerId": 2506106,
            "team": "king"
        },
        {
            "playerId": 310,
            "team": "baddpass"
        },
        {
            "playerId": 2540160,
            "team": "david"
        },
        {
            "playerId": 2552374,
            "team": "check"
        },
        {
            "playerId": 2506922,
            "team": "microbenchmarks"
        },
        {
            "playerId": 2557976,
            "team": "zeno"
        },
        {
            "playerId": 2543471,
            "team": "teamng"
        },
        {
            "playerId": 2506404,
            "team": "kracken"
        },
        {
            "playerId": 2553733,
            "team": "unicorns"
        },
        {
            "playerId": 497328,
            "team": "lauren"
        },
        {
            "playerId": 2533039,
            "team": "archangels"
        },
        {
            "playerId": 71269,
            "team": "dara"
        },
        {
            "playerId": 2543572,
            "team": "dara"
        },
        {
            "playerId": 2552466,
            "team": "archangels"
        },
        {
            "playerId": 2506109,
            "team": "lauren"
        },
        {
            "playerId": 1581,
            "team": "unicorns"
        },
        {
            "playerId": 2543495,
            "team": "kracken"
        },
        {
            "playerId": 2543499,
            "team": "teamng"
        },
        {
            "playerId": 2532820,
            "team": "zeno"
        },
        {
            "playerId": 234,
            "team": "microbenchmarks"
        },
        {
            "playerId": 2556214,
            "team": "check"
        },
        {
            "playerId": 2543509,
            "team": "david"
        },
        {
            "playerId": 1062,
            "team": "baddpass"
        },
        {
            "playerId": 497322,
            "team": "king"
        },
        {
            "playerId": 79860,
            "team": "king"
        },
        {
            "playerId": 100030,
            "team": "baddpass"
        },
        {
            "playerId": 497326,
            "team": "david"
        },
        {
            "playerId": 100009,
            "team": "check"
        },
        {
            "playerId": 100016,
            "team": "microbenchmarks"
        },
        {
            "playerId": 2495438,
            "team": "zeno"
        },
        {
            "playerId": 2532899,
            "team": "teamng"
        },
        {
            "playerId": 2552415,
            "team": "kracken"
        },
        {
            "playerId": 2555341,
            "team": "unicorns"
        },
        {
            "playerId": 2540148,
            "team": "lauren"
        },
        {
            "playerId": 2552453,
            "team": "archangels"
        },
        {
            "playerId": 2495328,
            "team": "dara"
        },
        {
            "playerId": 2543457,
            "team": "dara"
        },
        {
            "playerId": 100013,
            "team": "archangels"
        },
        {
            "playerId": 100020,
            "team": "lauren"
        },
        {
            "playerId": 100026,
            "team": "unicorns"
        },
        {
            "playerId": 2495966,
            "team": "kracken"
        },
        {
            "playerId": 2533031,
            "team": "teamng"
        },
        {
            "playerId": 100021,
            "team": "zeno"
        },
        {
            "playerId": 2539663,
            "team": "microbenchmarks"
        },
        {
            "playerId": 2556075,
            "team": "check"
        },
        {
            "playerId": 2552033,
            "team": "david"
        },
        {
            "playerId": 2552409,
            "team": "baddpass"
        },
        {
            "playerId": 949,
            "team": "king"
        },
        {
            "playerId": 2543488,
            "team": "king"
        },
        {
            "playerId": 497149,
            "team": "baddpass"
        },
        {
            "playerId": 2346,
            "team": "david"
        },
        {
            "playerId": 2552608,
            "team": "check"
        },
        {
            "playerId": 2556414,
            "team": "microbenchmarks"
        },
        {
            "playerId": 2495259,
            "team": "zeno"
        },
        {
            "playerId": 2540158,
            "team": "teamng"
        },
        {
            "playerId": 2495448,
            "team": "kracken"
        },
        {
            "playerId": 2507232,
            "team": "unicorns"
        },
        {
            "playerId": 2504797,
            "team": "lauren"
        },
        {
            "playerId": 2503471,
            "team": "archangels"
        },
        {
            "playerId": 2506121,
            "team": "dara"
        },
        {
            "playerId": 2543466,
            "team": "dara"
        },
        {
            "playerId": 2553913,
            "team": "archangels"
        },
        {
            "playerId": 4327,
            "team": "lauren"
        },
        {
            "playerId": 2495893,
            "team": "unicorns"
        },
        {
            "playerId": 100023,
            "team": "kracken"
        },
        {
            "playerId": 80429,
            "team": "teamng"
        },
        {
            "playerId": 2550256,
            "team": "zeno"
        },
        {
            "playerId": 2505245,
            "team": "microbenchmarks"
        },
        {
            "playerId": 2543664,
            "team": "check"
        },
        {
            "playerId": 2555460,
            "team": "david"
        },
        {
            "playerId": 2556601,
            "team": "baddpass"
        },
        {
            "playerId": 2540168,
            "team": "king"
        },
        {
            "playerId": 2552430,
            "team": "king"
        },
        {
            "playerId": 2555417,
            "team": "baddpass"
        },
        {
            "playerId": 100004,
            "team": "david"
        },
        {
            "playerId": 2540232,
            "team": "check"
        },
        {
            "playerId": 2507166,
            "team": "microbenchmarks"
        },
        {
            "playerId": 497284,
            "team": "zeno"
        },
        {
            "playerId": 100015,
            "team": "teamng"
        },
        {
            "playerId": 2550545,
            "team": "kracken"
        },
        {
            "playerId": 2543847,
            "team": "unicorns"
        },
        {
            "playerId": 2530515,
            "team": "lauren"
        },
        {
            "playerId": 71217,
            "team": "archangels"
        },
        {
            "playerId": 284,
            "team": "dara"
        },
        {
            "playerId": 100017,
            "team": "dara"
        },
        {
            "playerId": 2495143,
            "team": "archangels"
        },
        {
            "playerId": 2552461,
            "team": "lauren"
        },
        {
            "playerId": 2540020,
            "team": "unicorns"
        },
        {
            "playerId": 2532903,
            "team": "kracken"
        },
        {
            "playerId": 2495471,
            "team": "teamng"
        },
        {
            "playerId": 2543603,
            "team": "zeno"
        },
        {
            "playerId": 2507374,
            "team": "microbenchmarks"
        },
        {
            "playerId": 2505996,
            "team": "check"
        },
        {
            "playerId": 2506677,
            "team": "david"
        },
        {
            "playerId": 2532838,
            "team": "baddpass"
        },
        {
            "playerId": 2504257,
            "team": "king"
        },
        {
            "playerId": 100025,
            "team": "king"
        },
        {
            "playerId": 2532968,
            "team": "baddpass"
        },
        {
            "playerId": 2543614,
            "team": "david"
        },
        {
            "playerId": 2541556,
            "team": "check"
        },
        {
            "playerId": 2541785,
            "team": "microbenchmarks"
        },
        {
            "playerId": 2555259,
            "team": "zeno"
        },
        {
            "playerId": 2550636,
            "team": "teamng"
        }
    ],
    "teamNames": [
        "king",
        "baddpass",
        "david",
        "check",
        "microbenchmarks",
        "zeno",
        "teamng",
        "kracken",
        "unicorns",
        "lauren",
        "archangels",
        "dara"
    ]
}