Pick: Sebastian Janikowski : K - 135.412201 +- 23.048409 Visits: 101 Value: 83.103508 Estimate: 0.822807
Pick: Blair Walsh : K - 135.275482 +- 11.711166 Visits: 101 Value: 83.101982 Estimate: 0.822792
Pick: Brandon McManus : K - 130.236374 +- 5.897179 Visits: 101 Value: 83.137329 Estimate: 0.823142
Pick: Jordan Matthews : WR - 105.932121 +- 11.970810 Visits: 101 Value: 83.112717 Estimate: 0.822898
Pick: Matt Prater : K - 136.767761 +- 9.281006 Visits: 100 Value: 82.232735 Estimate: 0.822327
Pick: Caleb Sturgis : K - 134.246414 +- 24.021317 Visits: 100 Value: 82.237366 Estimate: 0.822374
Pick: Donte Moncrief : WR - 115.170151 +- 32.526886 Visits: 100 Value: 82.146584 Estimate: 0.821466
Pick: Dustin Hopkins : K - 132.334457 +- 23.592567 Visits: 100 Value: 82.209656 Estimate: 0.822097
Pick: Rishard Matthews : WR - 112.805359 +- 21.528320 Visits: 100 Value: 82.141960 Estimate: 0.821420
Pick: Cairo Santos : K - 129.016907 +- 31.143784 Visits: 100 Value: 82.151192 Estimate: 0.821512
Pick: Tyrod Taylor : QB - 266.094330 +- 14.500244 Visits: 100 Value: 82.263489 Estimate: 0.822635
Pick: Graham Gano : K - 127.718170 +- 58.976471 Visits: 100 Value: 82.135796 Estimate: 0.821358
Pick: James White : RB - 103.035873 +- 60.256218 Visits: 100 Value: 82.131210 Estimate: 0.821312
Pick: Jason Myers : K - 123.343216 +- 9.433044 Visits: 100 Value: 82.183502 Estimate: 0.821835
Pick: Phil Dawson : K - 123.095566 +- 29.765831 Visits: 100 Value: 82.217346 Estimate: 0.822173
Pick: Kai Forbath : K - 122.925529 +- 20.374405 Visits: 100 Value: 82.221954 Estimate: 0.822220
Pick: Josh Lambo : K - 122.353134 +- 20.457054 Visits: 100 Value: 82.180443 Estimate: 0.821804
Pick: Darren Sproles : RB - 100.737839 +- 20.059921 Visits: 100 Value: 82.191208 Estimate: 0.821912
Pick: Kevin White : WR - 102.538918 +- 31.479820 Visits: 100 Value: 82.132759 Estimate: 0.821328
Pick: Bengals : DST - 110.091858 +- 28.063393 Visits: 100 Value: 82.180405 Estimate: 0.821804
Pick: Jeremy Hill : RB - 100.235733 +- 94.547058 Visits: 100 Value: 82.215820 Estimate: 0.822158
Pick: Mike Wallace : WR - 112.290245 +- 36.236252 Visits: 99 Value: 81.303497 Estimate: 0.821247
Pick: Marvin Jones : WR - 106.759727 +- 22.649590 Visits: 99 Value: 81.235809 Estimate: 0.820564
Pick: Adam Thielen : WR - 104.617599 +- 42.725090 Visits: 99 Value: 81.238861 Estimate: 0.820595
Pick: Ryan Succop : K - 123.121910 +- 30.480736 Visits: 99 Value: 81.271172 Estimate: 0.820921
