Pick: Randall Cobb : WR - 125.108490 +- 15.505447 Visits: 119 Value: 91.789619 Estimate: 0.771341
Pick: Matt Bryant : K - 153.665833 +- 16.991241 Visits: 114 Value: 87.363441 Estimate: 0.766346
Pick: Blair Walsh : K - 135.275482 +- 11.711166 Visits: 112 Value: 85.471092 Estimate: 0.763135
Pick: Adam Vinatieri : K - 138.239624 +- 13.507782 Visits: 110 Value: 83.789551 Estimate: 0.761723
Pick: Mason Crosby : K - 138.754730 +- 24.365067 Visits: 107 Value: 80.978737 Estimate: 0.756811
Pick: Matt Prater : K - 136.767761 +- 9.281006 Visits: 107 Value: 81.055679 Estimate: 0.757530
Pick: Chris Boswell : K - 131.945251 +- 31.294533 Visits: 105 Value: 79.315681 Estimate: 0.755387
Pick: Giants : DST - 122.304390 +- 43.313240 Visits: 104 Value: 78.466431 Estimate: 0.754485
Pick: Wil Lutz : K - 134.206924 +- 17.937492 Visits: 103 Value: 77.515640 Estimate: 0.752579
Pick: Dustin Hopkins : K - 132.334457 +- 23.592567 Visits: 103 Value: 77.578720 Estimate: 0.753191
Pick: Rishard Matthews : WR - 112.805359 +- 21.528320 Visits: 102 Value: 76.560280 Estimate: 0.750591
Pick: Brandon McManus : K - 130.236374 +- 5.897179 Visits: 100 Value: 74.818703 Estimate: 0.748187
Pick: Kenny Britt : WR - 113.169113 +- 23.163445 Visits: 99 Value: 73.975624 Estimate: 0.747229
Pick: Chris Hogan : WR - 113.748512 +- 17.527344 Visits: 96 Value: 71.255600 Estimate: 0.742246
Pick: Jeremy Maclin : WR - 111.052887 +- 41.371689 Visits: 96 Value: 71.318695 Estimate: 0.742903
Pick: Eddie Lacy : RB - 123.289276 +- 32.292061 Visits: 95 Value: 70.249451 Estimate: 0.739468
Pick: Donte Moncrief : WR - 115.170151 +- 32.526886 Visits: 95 Value: 70.397148 Estimate: 0.741023
Pick: Terrance West : RB - 131.753113 +- 31.989250 Visits: 94 Value: 69.450996 Estimate: 0.738840
Pick: Eric Decker : WR - 119.403664 +- 37.261086 Visits: 94 Value: 69.521744 Estimate: 0.739593
Pick: Mike Wallace : WR - 112.290245 +- 36.236252 Visits: 94 Value: 69.583290 Estimate: 0.740248
Pick: Paul Perkins : RB - 134.502487 +- 25.666779 Visits: 92 Value: 67.686348 Estimate: 0.735721
Pick: Brandon Marshall : WR - 118.575386 +- 24.977753 Visits: 91 Value: 66.797127 Estimate: 0.734034
Pick: Caleb Sturgis : K - 134.246414 +- 24.021317 Visits: 91 Value: 66.854042 Estimate: 0.734660
Pick: Danny Woodhead : RB - 118.129410 +- 41.310036 Visits: 89 Value: 65.135567 Estimate: 0.731860
Pick: Sebastian Janikowski : K - 135.412201 +- 23.048409 Visits: 88 Value: 64.167862 Estimate: 0.729180
