Pick: Matt Prater : K - 136.767761 +- 9.281006 Visits: 108 Value: 89.114319 Estimate: 0.825133
Pick: Blair Walsh : K - 135.275482 +- 11.711166 Visits: 108 Value: 89.023552 Estimate: 0.824292
Pick: Chris Boswell : K - 131.945251 +- 31.294533 Visits: 107 Value: 88.078949 Estimate: 0.823168
Pick: Brandon McManus : K - 130.236374 +- 5.897179 Visits: 107 Value: 88.097382 Estimate: 0.823340
Pick: Graham Gano : K - 127.718170 +- 58.976471 Visits: 107 Value: 88.075859 Estimate: 0.823139
Pick: Jason Myers : K - 123.343216 +- 9.433044 Visits: 107 Value: 88.083549 Estimate: 0.823211
Pick: Dustin Hopkins : K - 132.334457 +- 23.592567 Visits: 106 Value: 87.228127 Estimate: 0.822907
Pick: Ryan Succop : K - 123.121910 +- 30.480736 Visits: 106 Value: 87.108147 Estimate: 0.821775
Pick: Andy Dalton : QB - 265.466522 +- 78.198853 Visits: 100 Value: 81.437347 Estimate: 0.814373
Pick: Marvin Jones : WR - 106.759727 +- 22.649590 Visits: 100 Value: 81.465019 Estimate: 0.814650
Pick: James White : RB - 103.035873 +- 60.256218 Visits: 100 Value: 81.366531 Estimate: 0.813665
Pick: Rams : DST - 115.650124 +- 12.515610 Visits: 99 Value: 80.417297 Estimate: 0.812296
Pick: Mike Wallace : WR - 112.290245 +- 36.236252 Visits: 98 Value: 79.575775 Estimate: 0.811998
Pick: Adam Thielen : WR - 104.617599 +- 42.725090 Visits: 98 Value: 79.449615 Estimate: 0.810710
Pick: Chris Hogan : WR - 113.748512 +- 17.527344 Visits: 97 Value: 78.541908 Estimate: 0.809710
Pick: Theo Riddick : RB - 106.328026 +- 24.080421 Visits: 97 Value: 78.614243 Estimate: 0.810456
Pick: Jordan Matthews : WR - 105.932121 +- 11.970810 Visits: 97 Value: 78.611168 Estimate: 0.810424
Pick: Duke Johnson : RB - 103.057442 +- 18.903473 Visits: 97 Value: 78.580383 Estimate: 0.810107
Pick: Donte Moncrief : WR - 115.170151 +- 32.526886 Visits: 96 Value: 77.584969 Estimate: 0.808177
Pick: Kenny Britt : WR - 113.169113 +- 23.163445 Visits: 95 Value: 76.655754 Estimate: 0.806903
Pick: Rishard Matthews : WR - 112.805359 +- 21.528320 Visits: 95 Value: 76.664978 Estimate: 0.807000
Pick: Tyrod Taylor : QB - 266.094330 +- 14.500244 Visits: 95 Value: 76.723465 Estimate: 0.807615
Pick: Cairo Santos : K - 129.016907 +- 31.143784 Visits: 94 Value: 75.668068 Estimate: 0.804979
Pick: Sebastian Janikowski : K - 135.412201 +- 23.048409 Visits: 93 Value: 74.801895 Estimate: 0.804321
Pick: Caleb Sturgis : K - 134.246414 +- 24.021317 Visits: 93 Value: 74.715744 Estimate: 0.803395
