Pick: Davante Adams : WR - 140.199600 +- 26.780579 Visits: 138 Value: 106.214256 Estimate: 0.769669
Pick: Kyle Rudolph : TE - 114.555847 +- 14.815491 Visits: 134 Value: 102.677322 Estimate: 0.766249
Pick: Allen Robinson : WR - 139.800903 +- 27.634857 Visits: 133 Value: 101.688049 Estimate: 0.764572
Pick: Tyreek Hill : WR - 137.513123 +- 21.203766 Visits: 113 Value: 84.124893 Estimate: 0.744468
Pick: Golden Tate : WR - 133.963791 +- 20.294304 Visits: 110 Value: 81.517181 Estimate: 0.741065
Pick: Pierre Garcon : WR - 127.022369 +- 27.589851 Visits: 110 Value: 81.535645 Estimate: 0.741233
Pick: Sammy Watkins : WR - 129.589951 +- 38.493500 Visits: 107 Value: 78.906418 Estimate: 0.737443
Pick: Jarvis Landry : WR - 126.277779 +- 12.808151 Visits: 107 Value: 78.850998 Estimate: 0.736925
Pick: Zach Ertz : TE - 109.573212 +- 23.423958 Visits: 107 Value: 78.818695 Estimate: 0.736623
Pick: Emmanuel Sanders : WR - 130.340912 +- 21.134445 Visits: 106 Value: 78.000229 Estimate: 0.735851
Pick: Randall Cobb : WR - 125.108490 +- 15.505447 Visits: 106 Value: 78.055595 Estimate: 0.736374
Pick: Broncos : DST - 133.921219 +- 44.917358 Visits: 104 Value: 76.189491 Estimate: 0.732591
Pick: Stefon Diggs : WR - 126.428429 +- 25.699768 Visits: 102 Value: 74.560219 Estimate: 0.730983
Pick: Tevin Coleman : RB - 133.352097 +- 19.374069 Visits: 92 Value: 65.823227 Estimate: 0.715470
Pick: Eddie Lacy : RB - 123.289276 +- 32.292061 Visits: 92 Value: 65.767853 Estimate: 0.714868
Pick: Matt Bryant : K - 153.665833 +- 16.991241 Visits: 91 Value: 65.026321 Estimate: 0.714575
Pick: Paul Perkins : RB - 134.502487 +- 25.666779 Visits: 90 Value: 64.046303 Estimate: 0.711626
Pick: Rob Kelley : RB - 133.541916 +- 37.171097 Visits: 88 Value: 62.452454 Estimate: 0.709687
Pick: Terrance West : RB - 131.753113 +- 31.989250 Visits: 87 Value: 61.580139 Estimate: 0.707818
Pick: Jonathan Stewart : RB - 126.990608 +- 41.333092 Visits: 85 Value: 59.809372 Estimate: 0.703640
Pick: Bilal Powell : RB - 140.819916 +- 24.729210 Visits: 84 Value: 58.940121 Estimate: 0.701668
Pick: Dan Bailey : K - 143.069138 +- 13.182632 Visits: 84 Value: 58.970905 Estimate: 0.702035
Pick: Mike Gillislee : RB - 132.588821 +- 144.708313 Visits: 80 Value: 55.567795 Estimate: 0.694597
Pick: Jameis Winston : QB - 289.580963 +- 77.148438 Visits: 77 Value: 52.949322 Estimate: 0.687654
Pick: Kirk Cousins : QB - 280.409241 +- 70.582947 Visits: 73 Value: 49.649303 Estimate: 0.680127
