Pick: Pierre Garcon : WR - 127.022369 +- 27.589851 Visits: 117 Value: 95.063545 Estimate: 0.812509
Pick: Terrance West : RB - 131.753113 +- 31.989250 Visits: 108 Value: 86.741974 Estimate: 0.803166
Pick: Eric Decker : WR - 119.403664 +- 37.261086 Visits: 108 Value: 86.645035 Estimate: 0.802269
Pick: Paul Perkins : RB - 134.502487 +- 25.666779 Visits: 107 Value: 85.772690 Estimate: 0.801614
Pick: Zach Ertz : TE - 109.573212 +- 23.423958 Visits: 107 Value: 85.674248 Estimate: 0.800694
Pick: DeVante Parker : WR - 120.523766 +- 23.269356 Visits: 107 Value: 85.623466 Estimate: 0.800219
Pick: Bilal Powell : RB - 140.819916 +- 24.729210 Visits: 105 Value: 83.791153 Estimate: 0.798011
Pick: Rob Kelley : RB - 133.541916 +- 37.171097 Visits: 104 Value: 82.948044 Estimate: 0.797577
Pick: Tevin Coleman : RB - 133.352097 +- 19.374069 Visits: 104 Value: 83.005005 Estimate: 0.798125
Pick: Sammy Watkins : WR - 129.589951 +- 38.493500 Visits: 104 Value: 83.003456 Estimate: 0.798110
Pick: Jonathan Stewart : RB - 126.990608 +- 41.333092 Visits: 104 Value: 82.972710 Estimate: 0.797814
Pick: Jarvis Landry : WR - 126.277779 +- 12.808151 Visits: 104 Value: 82.991142 Estimate: 0.797992
Pick: Danny Woodhead : RB - 118.129410 +- 41.310036 Visits: 104 Value: 82.898827 Estimate: 0.797104
Pick: Stefon Diggs : WR - 126.428429 +- 25.699768 Visits: 103 Value: 81.952675 Estimate: 0.795657
Pick: Randall Cobb : WR - 125.108490 +- 15.505447 Visits: 103 Value: 82.061913 Estimate: 0.796718
Pick: Jamison Crowder : WR - 122.107567 +- 49.627739 Visits: 102 Value: 80.906525 Estimate: 0.793201
Pick: Tyler Eifert : TE - 106.994102 +- 27.892891 Visits: 101 Value: 80.108070 Estimate: 0.793149
Pick: Eddie Lacy : RB - 123.289276 +- 32.292061 Visits: 100 Value: 79.149574 Estimate: 0.791496
Pick: Matt Bryant : K - 153.665833 +- 16.991241 Visits: 95 Value: 74.526459 Estimate: 0.784489
Pick: Dan Bailey : K - 143.069138 +- 13.182632 Visits: 94 Value: 73.615692 Estimate: 0.783146
Pick: Adam Vinatieri : K - 138.239624 +- 13.507782 Visits: 92 Value: 71.781837 Estimate: 0.780237
Pick: Mason Crosby : K - 138.754730 +- 24.365067 Visits: 84 Value: 64.298691 Estimate: 0.765461
Pick: Andrew Luck : QB - 275.789124 +- 38.897308 Visits: 83 Value: 63.498714 Estimate: 0.765045
Pick: Mike Gillislee : RB - 132.588821 +- 144.708313 Visits: 81 Value: 61.627907 Estimate: 0.760838
Pick: Jameis Winston : QB - 289.580963 +- 77.148438 Visits: 79 Value: 59.757133 Estimate: 0.756419
